{"nome":"Fernando","cpf":"05982201600","endereco":{"logradouro":"av. das couves","numero":"1161","cidade":"uberaba","estado":"MG","cep":"38066030"}}
{"nome":"Ygor - o  cara","cpf":"12345694564","endereco":{"logradouro":"dwqweqewq","numero":"11651","cidade":"roça","estado":"MG","cep":"51651954"}}
{"nome":"Douglas - o hacker","cpf":"51616519651","endereco":{"logradouro":"erwqerwqr","numero":"1544","cidade":"Araxá","estado":"MG","cep":"15495196"}}
